18 Reshaping – COMP/STAT112 Notebook
…
Part b

Use your wrangling tools to identify which songs are those above the line in Part a, i.e. with rankgings that went up from week 1 to week 2.

billboard |>
  mutate(change = wk2-wk1)|>
  filter(change<0)

# A tibble: 255 × 80
   artist     track date.entered   wk1   wk2   wk3   wk4   wk5   wk6   wk7   wk8
   <chr>      <chr> <date>       <dbl> <dbl> <dbl> <dbl> <dbl> <dbl> <dbl> <dbl>
 1 2 Pac      Baby… 2000-02-26      87    82    72    77    87    94    99    NA
 2 2Ge+her    The … 2000-09-02      91    87    92    NA    NA    NA    NA    NA
 3 3 Doors D… Kryp… 2000-04-08      81    70    68    67    66    57    54    53
 4 504 Boyz   Wobb… 2000-04-15      57    34    25    17    17    31    36    49
 5 98^0       Give… 2000-08-19      51    39    34    26    26    19     2     2
 6 Aaliyah    I Do… 2000-01-29      84    62    51    41    38    35    35    38
 7 Aaliyah    Try … 2000-03-18      59    53    38    28    21    18    16    14
 8 Aguilera,… Come… 2000-08-05      57    47    45    29    23    18    11     9
 9 Aguilera,… I Tu… 2000-04-15      50    39    30    28    21    19    20    17
10 Aguilera,… What… 1999-11-27      71    51    28    18    13    13    11     1
# ℹ 245 more rows
# ℹ 69 more variables: wk9 <dbl>, wk10 <dbl>, wk11 <dbl>, wk12 <dbl>,
#   wk13 <dbl>, wk14 <dbl>, wk15 <dbl>, wk16 <dbl>, wk17 <dbl>, wk18 <dbl>,
#   wk19 <dbl>, wk20 <dbl>, wk21 <dbl>, wk22 <dbl>, wk23 <dbl>, wk24 <dbl>,
#   wk25 <dbl>, wk26 <dbl>, wk27 <dbl>, wk28 <dbl>, wk29 <dbl>, wk30 <dbl>,
#   wk31 <dbl>, wk32 <dbl>, wk33 <dbl>, wk34 <dbl>, wk35 <dbl>, wk36 <dbl>,
#   wk37 <dbl>, wk38 <dbl>, wk39 <dbl>, wk40 <dbl>, wk41 <dbl>, wk42 <dbl>, …
…
