17 Dates – COMP/STAT112 Notebook
…
Code
# First: recall the variable names
names(penguins)

[1] "species"           "island"            "bill_length_mm"   
[4] "bill_depth_mm"     "flipper_length_mm" "body_mass_g"      
[7] "sex"               "year"             

Code
# Use a shortcut to keep everything but the year and island variables
penguins |>
  select(-c(year, island))

# A tibble: 344 × 6
   species bill_length_mm bill_depth_mm flipper_length_mm body_mass_g sex   
   <chr>            <dbl>         <dbl>             <dbl>       <dbl> <chr> 
 1 Adelie            39.1          18.7               181        3750 male  
 2 Adelie            39.5          17.4               186        3800 female
 3 Adelie            40.3          18                 195        3250 female
 4 Adelie            NA            NA                  NA          NA <NA>  
 5 Adelie            36.7          19.3               193        3450 female
 6 Adelie            39.3          20.6               190        3650 male  
 7 Adelie            38.9          17.8               181        3625 female
 8 Adelie            39.2          19.6               195        4675 male  
 9 Adelie            34.1          18.1               193        3475 <NA>  
10 Adelie            42            20.2               190        4250 <NA>  
# ℹ 334 more rows

Code
# Use a shortcut to keep only species and the penguin characteristics measured in mm
penguins |>
  select(c(species, contains("mm")))

# A tibble: 344 × 4
   species bill_length_mm bill_depth_mm flipper_length_mm
   <chr>            <dbl>         <dbl>             <dbl>
 1 Adelie            39.1          18.7               181
 2 Adelie            39.5          17.4               186
 3 Adelie            40.3          18                 195
 4 Adelie            NA            NA                  NA
 5 Adelie            36.7          19.3               193
 6 Adelie            39.3          20.6               190
 7 Adelie            38.9          17.8               181
 8 Adelie            39.2          19.6               195
 9 Adelie            34.1          18.1               193
10 Adelie            42            20.2               190
# ℹ 334 more rows

Code
# Use a shortcut to keep only species and bill-related measurements
penguins |>
  select(contains("bill"))

# A tibble: 344 × 2
   bill_length_mm bill_depth_mm
            <dbl>         <dbl>
 1           39.1          18.7
 2           39.5          17.4
 3           40.3          18  
 4           NA            NA  
 5           36.7          19.3
 6           39.3          20.6
 7           38.9          17.8
 8           39.2          19.6
 9           34.1          18.1
10           42            20.2
# ℹ 334 more rows

Code
# Use a shortcut to keep only species and the length-related characteristics
penguins |>
  select(c(species, contains("length")))

# A tibble: 344 × 3
   species bill_length_mm flipper_length_mm
   <chr>            <dbl>             <dbl>
 1 Adelie            39.1               181
 2 Adelie            39.5               186
 3 Adelie            40.3               195
 4 Adelie            NA                  NA
 5 Adelie            36.7               193
 6 Adelie            39.3               190
 7 Adelie            38.9               181
 8 Adelie            39.2               195
 9 Adelie            34.1               193
10 Adelie            42                 190
# ℹ 334 more rows

Exercise 3: Arranging, Counting, & Grouping by Multiple Variables

We’ve done examples where we need to filter() by more than one variable, or select() more than one variable. Use your intuition for how we can arrange(), count(), and group_by() more than one variable.

Code
# Change this code to sort the penguins by species, and then island name
# NOTE: The first row should be an Adelie penguin living on Biscoe island
penguins |> 
  arrange(species)

# A tibble: 344 × 8
   species island    bill_length_mm bill_depth_mm flipper_length_mm body_mass_g
   <chr>   <chr>              <dbl>         <dbl>             <dbl>       <dbl>
 1 Adelie  Torgersen           39.1          18.7               181        3750
 2 Adelie  Torgersen           39.5          17.4               186        3800
 3 Adelie  Torgersen           40.3          18                 195        3250
 4 Adelie  Torgersen           NA            NA                  NA          NA
 5 Adelie  Torgersen           36.7          19.3               193        3450
 6 Adelie  Torgersen           39.3          20.6               190        3650
 7 Adelie  Torgersen           38.9          17.8               181        3625
 8 Adelie  Torgersen           39.2          19.6               195        4675
 9 Adelie  Torgersen           34.1          18.1               193        3475
10 Adelie  Torgersen           42            20.2               190        4250
# ℹ 334 more rows
# ℹ 2 more variables: sex <chr>, year <dbl>
…
Birthdays gives the number of births recorded on each day of the year in each state from 1969 to 19881. We can use our wrangling skills to understand some drivers of daily births. Putting these all together can be challenging! Remember the following ways to make tasks more manageable:

Translate the prompt into our 6 verbs (and count()). That is, think before you type.

Build your code line by line. It’s important to understand what’s being piped into each function!

Exercise 5: Warming up

Code
# How many days of data do we have for each state?
Birthdays |>
  group_by(state)|>
  count(state)

# A tibble: 51 × 2
# Groups:   state [51]
   state     n
   <chr> <int>
 1 AK     7306
 2 AL     7312
 3 AR     7310
 4 AZ     7310
 5 CA     7325
 6 CO     7305
 7 CT     7312
 8 DC     7311
 9 DE     7307
10 FL     7307
# ℹ 41 more rows
…
  sum(births)
1    70486538

Code
# How many total births were there per state in this time period, sorted from low to high?
Birthdays |>
  group_by(state)|>
  summarise(total_births = sum(births))|>
  arrange(total_births)

# A tibble: 51 × 2
   state total_births
   <chr>        <int>
 1 VT          147886
 2 WY          154019
 3 AK          185385
 4 DE          188705
 5 SD          235734
 6 ND          238696
 7 NV          241470
 8 MT          253884
 9 NH          264984
10 RI          265038
# ℹ 41 more rows
…
