16 Wrangling – COMP/STAT112 Notebook
…
  median_repub total_votes
1        68.29   157949293

Exercise 8: summarize + group_by demo

Finally, group_by() groups the units of observation or rows of a data frame by a specified set of variables. Alone, this function doesn’t change the appearance of our dataset or seem to do anything at all:

Code
elections_small |>
  group_by(state_name)

# A tibble: 3,109 × 7
# Groups:   state_name [50]
   state_name county_name  total_votes_20 repub_pct_20 dem_pct_20 total_votes_16
   <chr>      <chr>                 <int>        <dbl>      <dbl>          <int>
 1 Alabama    Autauga Cou…          27770         71.4      27.0           24661
 2 Alabama    Baldwin Cou…         109679         76.2      22.4           94090
 3 Alabama    Barbour Cou…          10518         53.4      45.8           10390
 4 Alabama    Bibb County            9595         78.4      20.7            8748
 5 Alabama    Blount Coun…          27588         89.6       9.57          25384
 6 Alabama    Bullock Cou…           4613         24.8      74.7            4701
 7 Alabama    Butler Coun…           9488         57.5      41.8            8685
 8 Alabama    Calhoun Cou…          50983         68.8      29.8           47376
 9 Alabama    Chambers Co…          15284         57.3      41.6           13778
10 Alabama    Cherokee Co…          12301         86.0      13.2           10503
# ℹ 3,099 more rows
# ℹ 1 more variable: dem_pct_16 <dbl>
…
[1] "grouped_df" "tbl_df"     "tbl"        "data.frame"

Where it really shines is in partnership with summarize().

Code
# What does this do?
# (What if we didn't use group_by?)
elections_small |>
  group_by(state_name) |>
  summarize(median_repub = median(repub_pct_20), total_votes = sum(total_votes_20))

# A tibble: 50 × 3
   state_name           median_repub total_votes
   <chr>                       <dbl>       <int>
 1 Alabama                      70.6     2323304
 2 Arizona                      57.9     3387326
 3 Arkansas                     72.1     1219069
 4 California                   44.8    17495906
 5 Colorado                     56.2     3256953
 6 Connecticut                  41.0     1824280
 7 Delaware                     47.1      504010
 8 District of Columbia          5.4      344356
 9 Florida                      64.6    11067456
10 Georgia                      68       4997716
# ℹ 40 more rows
…
Add each verb one at a time.

Part a

NOTE: Part a is a challenge exercise. If you get really stuck, move on to Part b which is the same overall question, but with hints.

Code
# Sort the *states* from the most to least total votes cast in 2020
elections_small |> 
  group_by(state_name) |>
  summarise(total = sum(total_votes_20)) |>
  arrange(desc(total))

# A tibble: 50 × 2
   state_name        total
   <chr>             <int>
 1 California     17495906
 2 Texas          11317911
 3 Florida        11067456
 4 New York        8616205
 5 Pennsylvania    6925255
 6 Illinois        6038850
 7 Ohio            5922202
 8 Michigan        5539302
 9 North Carolina  5524801
10 Georgia         4997716
# ℹ 40 more rows

Code
# In 2020, what were the total number of votes for the Democratic candidate and the total number of votes for the Republican candidate in each *state*?
elections_small |> 
  mutate(total_rep = repub_pct_20 * total_votes_20, total_dem = dem_pct_20 * total_votes_20) |>
  group_by(state_name) |>
  summarise(rep_votes = sum(total_rep), dem_votes = sum(total_dem))

# A tibble: 50 × 3
   state_name            rep_votes   dem_votes
   <chr>                     <dbl>       <dbl>
 1 Alabama              144115325.   84966521.
 2 Arizona              166167238.  167212561.
 3 Arkansas              76063890.   42391888.
 4 California           600603367. 1110964299.
 5 Colorado             136462476.  180439477.
 6 Connecticut           71531461.  108067747.
 7 Delaware              20060118.   29627408.
 8 District of Columbia   1859522.   31732405.
 9 Florida              566859937.  529712890.
10 Georgia              246187098.  247365644.
# ℹ 40 more rows

Code
# What states did the Democratic candidate win in 2020?
elections_small |> 
  mutate(total_rep = repub_pct_20 * total_votes_20, total_dem = dem_pct_20 * total_votes_20) |>
  group_by(state_name) |>
  summarise(rep_votes = sum(total_rep), dem_votes = sum(total_dem)) |>
  mutate(dem_win = (dem_votes > rep_votes))

# A tibble: 50 × 4
   state_name            rep_votes   dem_votes dem_win
   <chr>                     <dbl>       <dbl> <lgl>  
 1 Alabama              144115325.   84966521. FALSE  
 2 Arizona              166167238.  167212561. TRUE   
 3 Arkansas              76063890.   42391888. FALSE  
 4 California           600603367. 1110964299. TRUE   
 5 Colorado             136462476.  180439477. TRUE   
 6 Connecticut           71531461.  108067747. TRUE   
 7 Delaware              20060118.   29627408. TRUE   
 8 District of Columbia   1859522.   31732405. TRUE   
 9 Florida              566859937.  529712890. FALSE  
10 Georgia              246187098.  247365644. TRUE   
# ℹ 40 more rows

Part b

Code
# Sort the states from the most to least total votes cast in 2020
# HINT: Calculate the total number of votes in each state, then sort
elections_small |> 
  group_by(state_name) |>
  summarise(total = sum(total_votes_20)) |>
  arrange(desc(total))

# A tibble: 50 × 2
   state_name        total
   <chr>             <int>
 1 California     17495906
 2 Texas          11317911
 3 Florida        11067456
 4 New York        8616205
 5 Pennsylvania    6925255
 6 Illinois        6038850
 7 Ohio            5922202
 8 Michigan        5539302
 9 North Carolina  5524801
10 Georgia         4997716
# ℹ 40 more rows

Code
# In 2020, what were the total number of votes for the Democratic candidate and the total number of votes for the Republican candidate in each state?
# HINT: First calculate the number of Dem and Repub votes in each *county*
# Then group and summarize these by state
elections_small |> 
  mutate(total_rep = repub_pct_20 * total_votes_20, total_dem = dem_pct_20 * total_votes_20) |>
  group_by(state_name) |>
  summarise(rep_votes = sum(total_rep), dem_votes = sum(total_dem))

# A tibble: 50 × 3
   state_name            rep_votes   dem_votes
   <chr>                     <dbl>       <dbl>
 1 Alabama              144115325.   84966521.
 2 Arizona              166167238.  167212561.
 3 Arkansas              76063890.   42391888.
 4 California           600603367. 1110964299.
 5 Colorado             136462476.  180439477.
 6 Connecticut           71531461.  108067747.
 7 Delaware              20060118.   29627408.
 8 District of Columbia   1859522.   31732405.
 9 Florida              566859937.  529712890.
10 Georgia              246187098.  247365644.
# ℹ 40 more rows

Code
# What states did the Democratic candidate win in 2020?
# HINT: Start with the results from the previous chunk, and then keep only some rows
elections_small |> 
  mutate(total_rep = repub_pct_20 * total_votes_20, total_dem = dem_pct_20 * total_votes_20) |>
  group_by(state_name) |>
  summarise(rep_votes = sum(total_rep), dem_votes = sum(total_dem)) |>
  mutate(dem_win = (dem_votes > rep_votes))

# A tibble: 50 × 4
   state_name            rep_votes   dem_votes dem_win
   <chr>                     <dbl>       <dbl> <lgl>  
 1 Alabama              144115325.   84966521. FALSE  
 2 Arizona              166167238.  167212561. TRUE   
 3 Arkansas              76063890.   42391888. FALSE  
 4 California           600603367. 1110964299. TRUE   
 5 Colorado             136462476.  180439477. TRUE   
 6 Connecticut           71531461.  108067747. TRUE   
 7 Delaware              20060118.   29627408. TRUE   
 8 District of Columbia   1859522.   31732405. TRUE   
 9 Florida              566859937.  529712890. FALSE  
10 Georgia              246187098.  247365644. TRUE   
# ℹ 40 more rows
…
